Introduction to Exponential Random Graph Models – Harriet Goers
…
Here’s where ERGMs with structural features become different. We cannot simply calculate the probability of each tie independently. Why? Because whether A→C exists depends on whether A→B and B→C exist!

The solution: We must look at all 64 possible complete networks and calculate the probability of each entire network configuration.

Generate All Possible Networks

all_networks <- expand_grid(
  tie_AB = 0:1, tie_AC = 0:1, tie_BA = 0:1,
  tie_BC = 0:1, tie_CA = 0:1, tie_CB = 0:1
) %>%
  mutate(network_id = row_number())

all_networks

# A tibble: 64 × 7
   tie_AB tie_AC tie_BA tie_BC tie_CA tie_CB network_id
    <int>  <int>  <int>  <int>  <int>  <int>      <int>
 1      0      0      0      0      0      0          1
 2      0      0      0      0      0      1          2
 3      0      0      0      0      1      0          3
 4      0      0      0      0      1      1          4
 5      0      0      0      1      0      0          5
 6      0      0      0      1      0      1          6
 7      0      0      0      1      1      0          7
 8      0      0      0      1      1      1          8
 9      0      0      1      0      0      0          9
10      0      0      1      0      0      1         10
# ℹ 54 more rows
…
    # Sufficient statistic 5: Number of transitive triads
    # Count patterns where i→j AND j→k AND i→k all exist
    n_transitive = (tie_AB * tie_BC * tie_AC) +  # A→B→C (and A→C)
                   (tie_AC * tie_CB * tie_AB) +  # A→C→B (and A→B)
                   (tie_BA * tie_AC * tie_BC) +  # B→A→C (and B→C)
                   (tie_BC * tie_CA * tie_BA) +  # B→C→A (and B→A)
                   (tie_CA * tie_AB * tie_CB) +  # C→A→B (and C→B)
                   (tie_CB * tie_BA * tie_CA)    # C→B→A (and C→A)
  ) %>%
  ungroup()

select(network_stats, network_id:n_transitive)

# A tibble: 64 × 6
   network_id n_edges n_both_dem sum_cinc sum_dist n_transitive
        <int>   <int>      <dbl>    <dbl>    <dbl>        <int>
 1          1       0          0    0            0            0
 2          2       1          0    0.571       35            0
 3          3       1          0    0.282       40            0
 4          4       2          0    0.853       75            0
 5          5       1          0    1.75        35            0
 6          6       2          0    2.32        70            0
 7          7       2          0    2.03        75            0
 8          8       3          0    2.60       110            0
 9          9       1          1    0.493       12            0
10         10       2          1    1.06        47            0
# ℹ 54 more rows
…
# Calculate the normalizing constant
log_kappa <- log(sum(exp(network_stats$log_prob_unnorm)))

# Calculate final probabilities
network_stats <- network_stats %>%
  mutate(
    log_prob = log_prob_unnorm - log_kappa,
    prob = exp(log_prob)
  ) %>%
  arrange(desc(prob))

select(network_stats, network_id, log_prob_unnorm, log_prob, prob)

# A tibble: 64 × 4
   network_id log_prob_unnorm log_prob    prob
        <int>           <dbl>    <dbl>   <dbl>
 1         17           1.32    -0.639 0.528  
 2         21           0.200   -1.76  0.171  
 3          1           0       -1.96  0.140  
 4          5          -1.12    -3.09  0.0455 
 5         18          -1.57    -3.53  0.0292 
 6         49          -1.73    -3.70  0.0248 
 7         19          -2.25    -4.22  0.0147 
 8         22          -2.69    -4.66  0.00949
 9          2          -2.89    -4.86  0.00777
10         33          -3.06    -5.02  0.00659
# ℹ 54 more rows
…
